PWD /run/media/danieljacob/Samsung USB/UofT 2022-2023/PHY2506/Final Project/Latex
INPUT /usr/share/texlive/texmf-dist/web2c/texmf.cnf
INPUT /usr/share/texlive/texmf-dist/web2c/texmf.cnf
INPUT /home/danieljacob/.texlive2020/texmf-var/web2c/pdftex/pdflatex.fmt
INPUT /run/media/danieljacob/Samsung USB/UofT 2022-2023/PHY2506/Final Project/Latex/PHY2506_Final_Project.tex
OUTPUT PHY2506_Final_Project.log
INPUT /usr/share/texlive/texmf-dist/tex/latex/base/article.cls
INPUT /usr/share/texlive/texmf-dist/tex/latex/base/article.cls
INPUT /usr/share/texlive/texmf-dist/tex/latex/base/size12.clo
INPUT /usr/share/texlive/texmf-dist/tex/latex/base/size12.clo
INPUT /usr/share/texlive/texmf-dist/fonts/map/fontname/texfonts.map
INPUT /usr/share/texlive/texmf-dist/fonts/tfm/public/cm/cmr12.tfm
INPUT /usr/share/texlive/texmf-dist/tex/latex/extsizes/extsizes.sty
INPUT /usr/share/texlive/texmf-dist/tex/latex/extsizes/extsizes.sty
INPUT /usr/share/texlive/texmf-dist/tex/latex/base/size12.clo
INPUT /usr/share/texlive/texmf-dist/tex/latex/base/size12.clo
INPUT /usr/share/texlive/texmf-dist/tex/latex/base/inputenc.sty
INPUT /usr/share/texlive/texmf-dist/tex/latex/base/inputenc.sty
INPUT /usr/share/texlive/texmf-dist/tex/latex/amsmath/amsmath.sty
INPUT /usr/share/texlive/texmf-dist/tex/latex/amsmath/amsmath.sty
INPUT /usr/share/texlive/texmf-dist/tex/latex/amsmath/amstext.sty
INPUT /usr/share/texlive/texmf-dist/tex/latex/amsmath/amstext.sty
INPUT /usr/share/texlive/texmf-dist/tex/latex/amsmath/amsgen.sty
INPUT /usr/share/texlive/texmf-dist/tex/latex/amsmath/amsgen.sty
INPUT /usr/share/texlive/texmf-dist/tex/latex/amsmath/amsbsy.sty
INPUT /usr/share/texlive/texmf-dist/tex/latex/amsmath/amsbsy.sty
INPUT /usr/share/texlive/texmf-dist/tex/latex/amsmath/amsopn.sty
INPUT /usr/share/texlive/texmf-dist/tex/latex/amsmath/amsopn.sty
INPUT /usr/share/texlive/texmf-dist/tex/latex/amsfonts/amssymb.sty
INPUT /usr/share/texlive/texmf-dist/tex/latex/amsfonts/amssymb.sty
INPUT /usr/share/texlive/texmf-dist/tex/latex/amsfonts/amsfonts.sty
INPUT /usr/share/texlive/texmf-dist/tex/latex/amsfonts/amsfonts.sty
INPUT /usr/share/texlive/texmf-dist/tex/latex/graphics/graphicx.sty
INPUT /usr/share/texlive/texmf-dist/tex/latex/graphics/graphicx.sty
INPUT /usr/share/texlive/texmf-dist/tex/latex/graphics/keyval.sty
INPUT /usr/share/texlive/texmf-dist/tex/latex/graphics/keyval.sty
INPUT /usr/share/texlive/texmf-dist/tex/latex/graphics/graphics.sty
INPUT /usr/share/texlive/texmf-dist/tex/latex/graphics/graphics.sty
INPUT /usr/share/texlive/texmf-dist/tex/latex/graphics/trig.sty
INPUT /usr/share/texlive/texmf-dist/tex/latex/graphics/trig.sty
INPUT /usr/share/texlive/texmf-dist/tex/latex/graphics-cfg/graphics.cfg
INPUT /usr/share/texlive/texmf-dist/tex/latex/graphics-cfg/graphics.cfg
INPUT /usr/share/texlive/texmf-dist/tex/latex/graphics-def/pdftex.def
INPUT /usr/share/texlive/texmf-dist/tex/latex/graphics-def/pdftex.def
INPUT /usr/share/texlive/texmf-dist/tex/latex/float/float.sty
INPUT /usr/share/texlive/texmf-dist/tex/latex/float/float.sty
INPUT /usr/share/texlive/texmf-dist/tex/latex/geometry/geometry.sty
INPUT /usr/share/texlive/texmf-dist/tex/latex/geometry/geometry.sty
INPUT /usr/share/texlive/texmf-dist/tex/generic/iftex/ifvtex.sty
INPUT /usr/share/texlive/texmf-dist/tex/generic/iftex/ifvtex.sty
INPUT /usr/share/texlive/texmf-dist/tex/generic/iftex/iftex.sty
INPUT /usr/share/texlive/texmf-dist/tex/generic/iftex/iftex.sty
INPUT /usr/share/texlive/texmf-dist/tex/latex/caption/subcaption.sty
INPUT /usr/share/texlive/texmf-dist/tex/latex/caption/subcaption.sty
INPUT /usr/share/texlive/texmf-dist/tex/latex/caption/caption.sty
INPUT /usr/share/texlive/texmf-dist/tex/latex/caption/caption.sty
INPUT /usr/share/texlive/texmf-dist/tex/latex/caption/caption3.sty
INPUT /usr/share/texlive/texmf-dist/tex/latex/caption/caption3.sty
INPUT /usr/share/texlive/texmf-dist/tex/latex/multirow/multirow.sty
INPUT /usr/share/texlive/texmf-dist/tex/latex/multirow/multirow.sty
INPUT /usr/share/texlive/texmf-dist/tex/latex/wrapfig/wrapfig.sty
INPUT /usr/share/texlive/texmf-dist/tex/latex/wrapfig/wrapfig.sty
INPUT /usr/share/texlive/texmf-dist/tex/latex/biblatex/biblatex.sty
INPUT /usr/share/texlive/texmf-dist/tex/latex/biblatex/biblatex.sty
INPUT /usr/share/texlive/texmf-dist/tex/latex/pdftexcmds/pdftexcmds.sty
INPUT /usr/share/texlive/texmf-dist/tex/latex/pdftexcmds/pdftexcmds.sty
INPUT /usr/share/texlive/texmf-dist/tex/generic/infwarerr/infwarerr.sty
INPUT /usr/share/texlive/texmf-dist/tex/generic/infwarerr/infwarerr.sty
INPUT /usr/share/texlive/texmf-dist/tex/generic/ltxcmds/ltxcmds.sty
INPUT /usr/share/texlive/texmf-dist/tex/generic/ltxcmds/ltxcmds.sty
INPUT /usr/share/texlive/texmf-dist/tex/latex/etoolbox/etoolbox.sty
INPUT /usr/share/texlive/texmf-dist/tex/latex/etoolbox/etoolbox.sty
INPUT /usr/share/texlive/texmf-dist/tex/latex/kvoptions/kvoptions.sty
INPUT /usr/share/texlive/texmf-dist/tex/latex/kvoptions/kvoptions.sty
INPUT /usr/share/texlive/texmf-dist/tex/generic/kvsetkeys/kvsetkeys.sty
INPUT /usr/share/texlive/texmf-dist/tex/generic/kvsetkeys/kvsetkeys.sty
INPUT /usr/share/texlive/texmf-dist/tex/latex/logreq/logreq.sty
INPUT /usr/share/texlive/texmf-dist/tex/latex/logreq/logreq.sty
INPUT /usr/share/texlive/texmf-dist/tex/latex/logreq/logreq.def
INPUT /usr/share/texlive/texmf-dist/tex/latex/logreq/logreq.def
INPUT /usr/share/texlive/texmf-dist/tex/latex/base/ifthen.sty
INPUT /usr/share/texlive/texmf-dist/tex/latex/base/ifthen.sty
INPUT /usr/share/texlive/texmf-dist/tex/latex/url/url.sty
INPUT /usr/share/texlive/texmf-dist/tex/latex/url/url.sty
INPUT /usr/share/texlive/texmf-dist/tex/latex/biblatex/blx-dm.def
INPUT /usr/share/texlive/texmf-dist/tex/latex/biblatex/blx-dm.def
INPUT /usr/share/texlive/texmf-dist/tex/latex/biblatex/blx-compat.def
INPUT /usr/share/texlive/texmf-dist/tex/latex/biblatex/blx-compat.def
INPUT /usr/share/texlive/texmf-dist/tex/latex/biblatex/biblatex.def
INPUT /usr/share/texlive/texmf-dist/tex/latex/biblatex/biblatex.def
INPUT /usr/share/texlive/texmf-dist/tex/latex/biblatex-chem/chem-acs.bbx
INPUT /usr/share/texlive/texmf-dist/tex/latex/biblatex-chem/chem-acs.bbx
INPUT /usr/share/texlive/texmf-dist/tex/latex/biblatex/bbx/numeric-comp.bbx
INPUT /usr/share/texlive/texmf-dist/tex/latex/biblatex/bbx/numeric-comp.bbx
INPUT /usr/share/texlive/texmf-dist/tex/latex/biblatex/bbx/numeric.bbx
INPUT /usr/share/texlive/texmf-dist/tex/latex/biblatex/bbx/numeric.bbx
INPUT /usr/share/texlive/texmf-dist/tex/latex/biblatex/bbx/standard.bbx
INPUT /usr/share/texlive/texmf-dist/tex/latex/biblatex/bbx/standard.bbx
INPUT /usr/share/texlive/texmf-dist/tex/latex/biblatex/lbx/english.lbx
INPUT /usr/share/texlive/texmf-dist/tex/latex/biblatex-chem/chem-acs.cbx
INPUT /usr/share/texlive/texmf-dist/tex/latex/biblatex-chem/chem-acs.cbx
INPUT /usr/share/texlive/texmf-dist/tex/latex/biblatex/cbx/numeric-comp.cbx
INPUT /usr/share/texlive/texmf-dist/tex/latex/biblatex/cbx/numeric-comp.cbx
INPUT /usr/share/texlive/texmf-dist/tex/latex/biblatex/biblatex.cfg
INPUT /usr/share/texlive/texmf-dist/tex/latex/biblatex/biblatex.cfg
INPUT /usr/share/texlive/texmf-dist/tex/latex/l3backend/l3backend-pdfmode.def
INPUT /usr/share/texlive/texmf-dist/tex/latex/l3backend/l3backend-pdfmode.def
INPUT PHY2506_Final_Project.aux
INPUT PHY2506_Final_Project.aux
OUTPUT PHY2506_Final_Project.aux
INPUT /usr/share/texlive/texmf-dist/tex/context/base/mkii/supp-pdf.mkii
INPUT /usr/share/texlive/texmf-dist/tex/context/base/mkii/supp-pdf.mkii
INPUT /usr/share/texlive/texmf-dist/tex/latex/epstopdf-pkg/epstopdf-base.sty
INPUT /usr/share/texlive/texmf-dist/tex/latex/epstopdf-pkg/epstopdf-base.sty
INPUT /usr/share/texlive/texmf-dist/tex/latex/grfext/grfext.sty
INPUT /usr/share/texlive/texmf-dist/tex/latex/grfext/grfext.sty
INPUT /usr/share/texlive/texmf-dist/tex/generic/kvdefinekeys/kvdefinekeys.sty
INPUT /usr/share/texlive/texmf-dist/tex/generic/kvdefinekeys/kvdefinekeys.sty
INPUT /usr/share/texlive/texmf-dist/tex/latex/latexconfig/epstopdf-sys.cfg
INPUT /usr/share/texlive/texmf-dist/tex/latex/latexconfig/epstopdf-sys.cfg
INPUT /usr/share/texlive/texmf-dist/tex/latex/biblatex/lbx/english.lbx
INPUT /usr/share/texlive/texmf-dist/tex/latex/biblatex/lbx/english.lbx
OUTPUT PHY2506_Final_Project.bcf
INPUT PHY2506_Final_Project.bbl
INPUT PHY2506_Final_Project.bbl
INPUT PHY2506_Final_Project.bbl
INPUT /usr/share/texlive/texmf-dist/fonts/tfm/public/cm/cmr17.tfm
INPUT /usr/share/texlive/texmf-dist/fonts/tfm/public/cm/cmr12.tfm
INPUT /usr/share/texlive/texmf-dist/fonts/tfm/public/cm/cmmi12.tfm
INPUT /usr/share/texlive/texmf-dist/fonts/tfm/public/cm/cmsy10.tfm
INPUT /usr/share/texlive/texmf-dist/fonts/tfm/public/cm/cmex10.tfm
INPUT /usr/share/texlive/texmf-dist/fonts/tfm/public/amsfonts/cmextra/cmex7.tfm
INPUT /usr/share/texlive/texmf-dist/tex/latex/amsfonts/umsa.fd
INPUT /usr/share/texlive/texmf-dist/tex/latex/amsfonts/umsa.fd
INPUT /usr/share/texlive/texmf-dist/fonts/tfm/public/amsfonts/symbols/msam10.tfm
INPUT /usr/share/texlive/texmf-dist/fonts/tfm/public/amsfonts/symbols/msam10.tfm
INPUT /usr/share/texlive/texmf-dist/fonts/tfm/public/amsfonts/symbols/msam7.tfm
INPUT /usr/share/texlive/texmf-dist/tex/latex/amsfonts/umsb.fd
INPUT /usr/share/texlive/texmf-dist/tex/latex/amsfonts/umsb.fd
INPUT /usr/share/texlive/texmf-dist/fonts/tfm/public/amsfonts/symbols/msbm10.tfm
INPUT /usr/share/texlive/texmf-dist/fonts/tfm/public/amsfonts/symbols/msbm10.tfm
INPUT /usr/share/texlive/texmf-dist/fonts/tfm/public/amsfonts/symbols/msbm7.tfm
INPUT /usr/share/texlive/texmf-dist/fonts/tfm/public/cm/cmr17.tfm
INPUT /usr/share/texlive/texmf-dist/fonts/tfm/public/cm/cmbx12.tfm
INPUT /usr/share/texlive/texmf-dist/fonts/tfm/public/cm/cmmi12.tfm
INPUT /usr/share/texlive/texmf-dist/fonts/tfm/public/cm/cmmi12.tfm
INPUT /usr/share/texlive/texmf-dist/fonts/tfm/public/cm/cmsy10.tfm
INPUT /usr/share/texlive/texmf-dist/fonts/tfm/public/cm/cmsy10.tfm
INPUT /usr/share/texlive/texmf-dist/fonts/tfm/public/cm/cmex10.tfm
INPUT /usr/share/texlive/texmf-dist/fonts/tfm/public/cm/cmex10.tfm
INPUT /usr/share/texlive/texmf-dist/fonts/tfm/public/amsfonts/symbols/msam10.tfm
INPUT /usr/share/texlive/texmf-dist/fonts/tfm/public/amsfonts/symbols/msam10.tfm
INPUT /usr/share/texlive/texmf-dist/fonts/tfm/public/amsfonts/symbols/msbm10.tfm
INPUT /usr/share/texlive/texmf-dist/fonts/tfm/public/amsfonts/symbols/msbm10.tfm
INPUT /usr/share/texlive/texmf-dist/fonts/tfm/public/cm/cmbx12.tfm
INPUT /usr/share/texlive/texmf-dist/fonts/tfm/public/cm/cmr8.tfm
INPUT /usr/share/texlive/texmf-dist/fonts/tfm/public/cm/cmr6.tfm
INPUT /usr/share/texlive/texmf-dist/fonts/tfm/public/cm/cmmi8.tfm
INPUT /usr/share/texlive/texmf-dist/fonts/tfm/public/cm/cmmi6.tfm
INPUT /usr/share/texlive/texmf-dist/fonts/tfm/public/cm/cmsy8.tfm
INPUT /usr/share/texlive/texmf-dist/fonts/tfm/public/cm/cmsy6.tfm
INPUT /usr/share/texlive/texmf-dist/fonts/tfm/public/amsfonts/cmextra/cmex8.tfm
INPUT /usr/share/texlive/texmf-dist/fonts/tfm/public/amsfonts/cmextra/cmex7.tfm
INPUT /usr/share/texlive/texmf-dist/fonts/tfm/public/amsfonts/symbols/msam10.tfm
INPUT /usr/share/texlive/texmf-dist/fonts/tfm/public/amsfonts/symbols/msam7.tfm
INPUT /usr/share/texlive/texmf-dist/fonts/tfm/public/amsfonts/symbols/msbm10.tfm
INPUT /usr/share/texlive/texmf-dist/fonts/tfm/public/amsfonts/symbols/msbm7.tfm
OUTPUT PHY2506_Final_Project.pdf
INPUT /usr/share/texlive/texmf-dist/fonts/map/pdftex/updmap/pdftex.map
INPUT CovMatrixDefault.png
INPUT ./CovMatrixDefault.png
INPUT ./CovMatrixDefault.png
INPUT /usr/share/texlive/texmf-dist/fonts/tfm/public/cm/cmbx12.tfm
INPUT F0.2-InitialFinalState.png
INPUT ./F0.2-InitialFinalState.png
INPUT ./F0.2-InitialFinalState.png
INPUT /usr/share/texlive/texmf-dist/fonts/tfm/public/cm/cmr10.tfm
INPUT /usr/share/texlive/texmf-dist/fonts/tfm/public/cm/cmmi10.tfm
INPUT /usr/share/texlive/texmf-dist/fonts/tfm/public/cm/cmsy10.tfm
INPUT /usr/share/texlive/texmf-dist/fonts/tfm/public/cm/cmex10.tfm
INPUT /usr/share/texlive/texmf-dist/fonts/tfm/public/amsfonts/symbols/msam10.tfm
INPUT /usr/share/texlive/texmf-dist/fonts/tfm/public/amsfonts/symbols/msbm10.tfm
INPUT F0.2-PointEvolution.png
INPUT ./F0.2-PointEvolution.png
INPUT ./F0.2-PointEvolution.png
INPUT F0.8-InitialFinalState.png
INPUT ./F0.8-InitialFinalState.png
INPUT ./F0.8-InitialFinalState.png
INPUT F0.8-PointEvolution.png
INPUT ./F0.8-PointEvolution.png
INPUT ./F0.8-PointEvolution.png
INPUT F1.5-InitialFinalState.png
INPUT ./F1.5-InitialFinalState.png
INPUT ./F1.5-InitialFinalState.png
INPUT F1.5-PointEvolution.png
INPUT ./F1.5-PointEvolution.png
INPUT ./F1.5-PointEvolution.png
INPUT F4.0-InitialFinalState.png
INPUT ./F4.0-InitialFinalState.png
INPUT ./F4.0-InitialFinalState.png
INPUT F4.0-PointEvolution.png
INPUT ./F4.0-PointEvolution.png
INPUT ./F4.0-PointEvolution.png
INPUT F4.8-InitialFinalState.png
INPUT ./F4.8-InitialFinalState.png
INPUT ./F4.8-InitialFinalState.png
INPUT F4.8-PointEvolution.png
INPUT ./F4.8-PointEvolution.png
INPUT ./F4.8-PointEvolution.png
INPUT F8.0-InitialFinalState.png
INPUT ./F8.0-InitialFinalState.png
INPUT ./F8.0-InitialFinalState.png
INPUT F8.0-PointEvolution.png
INPUT ./F8.0-PointEvolution.png
INPUT ./F8.0-PointEvolution.png
INPUT initStates1.png
INPUT ./initStates1.png
INPUT ./initStates1.png
INPUT initStates2.png
INPUT ./initStates2.png
INPUT ./initStates2.png
INPUT initStates3.png
INPUT ./initStates3.png
INPUT ./initStates3.png
INPUT F0.8-AFinal.png
INPUT ./F0.8-AFinal.png
INPUT ./F0.8-AFinal.png
INPUT F0.8-AEvol.png
INPUT ./F0.8-AEvol.png
INPUT ./F0.8-AEvol.png
INPUT F4.0-AInitial-nobg.png
INPUT ./F4.0-AInitial-nobg.png
INPUT ./F4.0-AInitial-nobg.png
INPUT F4.0-AEvol.png
INPUT ./F4.0-AEvol.png
INPUT ./F4.0-AEvol.png
INPUT F4.0-AEvol.png
INPUT ./F4.0-AEvol.png
INPUT F4.8-AFinal-nobg.png
INPUT ./F4.8-AFinal-nobg.png
INPUT ./F4.8-AFinal-nobg.png
INPUT F4.8-AEvol.png
INPUT ./F4.8-AEvol.png
INPUT ./F4.8-AEvol.png
INPUT F4.8-ARMS.png
INPUT ./F4.8-ARMS.png
INPUT ./F4.8-ARMS.png
INPUT F4.8-AFinal-100TS.png
INPUT ./F4.8-AFinal-100TS.png
INPUT ./F4.8-AFinal-100TS.png
INPUT F4.8-AEvol-100TS.png
INPUT ./F4.8-AEvol-100TS.png
INPUT ./F4.8-AEvol-100TS.png
INPUT F4.8-ARMS-100TS.png
INPUT ./F4.8-ARMS-100TS.png
INPUT ./F4.8-ARMS-100TS.png
INPUT F8.0-AFinal-20TS-nobg.png
INPUT ./F8.0-AFinal-20TS-nobg.png
INPUT ./F8.0-AFinal-20TS-nobg.png
INPUT F8.0-AEvol-20TS.png
INPUT ./F8.0-AEvol-20TS.png
INPUT ./F8.0-AEvol-20TS.png
INPUT F8.0-ARMS-20TS.png
INPUT ./F8.0-ARMS-20TS.png
INPUT ./F8.0-ARMS-20TS.png
INPUT F8.0-AInitial-20TS-nobg.png
INPUT ./F8.0-AInitial-20TS-nobg.png
INPUT ./F8.0-AInitial-20TS-nobg.png
INPUT F8.0-ARMS-10TS.png
INPUT ./F8.0-ARMS-10TS.png
INPUT ./F8.0-ARMS-10TS.png
INPUT F8.0-AEvol-10TS.png
INPUT ./F8.0-AEvol-10TS.png
INPUT ./F8.0-AEvol-10TS.png
INPUT F8.0-AInitial-20TS-nobg.png
INPUT ./F8.0-AInitial-20TS-nobg.png
INPUT F8.0-AInitial-initError5.png
INPUT ./F8.0-AInitial-initError5.png
INPUT ./F8.0-AInitial-initError5.png
INPUT F8.0-AFinal-obsSpacing3.png
INPUT ./F8.0-AFinal-obsSpacing3.png
INPUT ./F8.0-AFinal-obsSpacing3.png
INPUT F8.0-AEvol-obsSpacing3.png
INPUT ./F8.0-AEvol-obsSpacing3.png
INPUT ./F8.0-AEvol-obsSpacing3.png
INPUT F8.0-ARMS-obsSpacing3.png
INPUT ./F8.0-ARMS-obsSpacing3.png
INPUT ./F8.0-ARMS-obsSpacing3.png
INPUT F8.0-AInitial-obsSpacing3.png
INPUT ./F8.0-AInitial-obsSpacing3.png
INPUT ./F8.0-AInitial-obsSpacing3.png
INPUT F8.0-AFinal-obsError5.png
INPUT ./F8.0-AFinal-obsError5.png
INPUT ./F8.0-AFinal-obsError5.png
INPUT F8.0-AEvol-obsError5.png
INPUT ./F8.0-AEvol-obsError5.png
INPUT ./F8.0-AEvol-obsError5.png
INPUT F8.0-ARMS-obsError5.png
INPUT ./F8.0-ARMS-obsError5.png
INPUT ./F8.0-ARMS-obsError5.png
INPUT F8.0-AInitial-obsError5.png
INPUT ./F8.0-AInitial-obsError5.png
INPUT ./F8.0-AInitial-obsError5.png
INPUT F8.0-AFinal-obsError3.png
INPUT ./F8.0-AFinal-obsError3.png
INPUT ./F8.0-AFinal-obsError3.png
INPUT F8.0-AFinal-obsError2.png
INPUT ./F8.0-AFinal-obsError2.png
INPUT ./F8.0-AFinal-obsError2.png
INPUT F8.0-AFinal-obsFreq10.png
INPUT ./F8.0-AFinal-obsFreq10.png
INPUT ./F8.0-AFinal-obsFreq10.png
INPUT F8.0-AEvol-obsFreq10.png
INPUT ./F8.0-AEvol-obsFreq10.png
INPUT ./F8.0-AEvol-obsFreq10.png
INPUT F8.0-ARMS-obsFreq10.png
INPUT ./F8.0-ARMS-obsFreq10.png
INPUT ./F8.0-ARMS-obsFreq10.png
INPUT F8.0-AInitial-obsFreq10.png
INPUT ./F8.0-AInitial-obsFreq10.png
INPUT ./F8.0-AInitial-obsFreq10.png
INPUT F8.0-AFinal-obsFreq8.png
INPUT ./F8.0-AFinal-obsFreq8.png
INPUT ./F8.0-AFinal-obsFreq8.png
INPUT F8.0-AFinal-obsFreq5.png
INPUT ./F8.0-AFinal-obsFreq5.png
INPUT ./F8.0-AFinal-obsFreq5.png
INPUT F8.0-AFinal-modelError1.png
INPUT ./F8.0-AFinal-modelError1.png
INPUT ./F8.0-AFinal-modelError1.png
INPUT F8.0-AEvol-modelError1.png
INPUT ./F8.0-AEvol-modelError1.png
INPUT ./F8.0-AEvol-modelError1.png
INPUT F8.0-ARMS-modelError1.png
INPUT ./F8.0-ARMS-modelError1.png
INPUT ./F8.0-ARMS-modelError1.png
INPUT F8.0-AInitial-modelError1.png
INPUT ./F8.0-AInitial-modelError1.png
INPUT ./F8.0-AInitial-modelError1.png
INPUT F8.0-AFinal-leftObs.png
INPUT ./F8.0-AFinal-leftObs.png
INPUT ./F8.0-AFinal-leftObs.png
INPUT F8.0-AEvol-leftObs.png
INPUT ./F8.0-AEvol-leftObs.png
INPUT ./F8.0-AEvol-leftObs.png
INPUT F8.0-ARMS-leftObs.png
INPUT ./F8.0-ARMS-leftObs.png
INPUT ./F8.0-ARMS-leftObs.png
INPUT F8.0-AInitial-leftObs.png
INPUT ./F8.0-AInitial-leftObs.png
INPUT ./F8.0-AInitial-leftObs.png
INPUT /usr/share/texlive/texmf-dist/fonts/tfm/public/cm/cmti12.tfm
INPUT PHY2506_Final_Project.aux
INPUT PHY2506_Final_Project.run.xml
OUTPUT PHY2506_Final_Project.run.xml
INPUT /usr/share/texlive/texmf-dist/fonts/type1/public/amsfonts/cm/cmbx12.pfb
INPUT /usr/share/texlive/texmf-dist/fonts/type1/public/amsfonts/cm/cmex10.pfb
INPUT /usr/share/texlive/texmf-dist/fonts/type1/public/amsfonts/cm/cmmi10.pfb
INPUT /usr/share/texlive/texmf-dist/fonts/type1/public/amsfonts/cm/cmmi12.pfb
INPUT /usr/share/texlive/texmf-dist/fonts/type1/public/amsfonts/cm/cmmi8.pfb
INPUT /usr/share/texlive/texmf-dist/fonts/type1/public/amsfonts/cm/cmr10.pfb
INPUT /usr/share/texlive/texmf-dist/fonts/type1/public/amsfonts/cm/cmr12.pfb
INPUT /usr/share/texlive/texmf-dist/fonts/type1/public/amsfonts/cm/cmr17.pfb
INPUT /usr/share/texlive/texmf-dist/fonts/type1/public/amsfonts/cm/cmr8.pfb
INPUT /usr/share/texlive/texmf-dist/fonts/type1/public/amsfonts/cm/cmsy10.pfb
INPUT /usr/share/texlive/texmf-dist/fonts/type1/public/amsfonts/cm/cmsy8.pfb
INPUT /usr/share/texlive/texmf-dist/fonts/type1/public/amsfonts/cm/cmti12.pfb
INPUT /usr/share/texlive/texmf-dist/fonts/type1/public/amsfonts/symbols/msam10.pfb
