\relax 
\abx@aux@refcontext{none/global//global/global}
\abx@aux@cite{lorenz96}
\abx@aux@segm{0}{0}{lorenz96}
\@writefile{toc}{\boolfalse {citerequest}\boolfalse {citetracker}\boolfalse {pagetracker}\boolfalse {backtracker}\relax }
\@writefile{lof}{\boolfalse {citerequest}\boolfalse {citetracker}\boolfalse {pagetracker}\boolfalse {backtracker}\relax }
\@writefile{lot}{\boolfalse {citerequest}\boolfalse {citetracker}\boolfalse {pagetracker}\boolfalse {backtracker}\relax }
\newlabel{eq:modelEvolution}{{1}{1}}
\providecommand*\caption@xref[2]{\@setref\relax\@undefined{#1}}
\newlabel{fig:CovMatrixDefault}{{1}{2}}
\newlabel{eq:CostFunc}{{2}{2}}
\newlabel{fig:F0.2Behaviour}{{2}{3}}
\newlabel{fig:F0.8Behaviour}{{3}{3}}
\newlabel{fig:F1.5Behaviour}{{4}{4}}
\newlabel{fig:F4.0Behaviour}{{5}{4}}
\newlabel{fig:F4.8-PointEvolution}{{6b}{5}}
\newlabel{sub@fig:F4.8-PointEvolution}{{b}{5}}
\newlabel{fig:F4.8Behaviour}{{6}{5}}
\newlabel{fig:F8.0Behaviour}{{7}{5}}
\newlabel{fig:initStates1}{{8a}{6}}
\newlabel{sub@fig:initStates1}{{a}{6}}
\newlabel{fig:initStates2}{{8b}{6}}
\newlabel{sub@fig:initStates2}{{b}{6}}
\newlabel{fig:initStates3}{{8c}{6}}
\newlabel{sub@fig:initStates3}{{c}{6}}
\newlabel{fig:initStates}{{8}{6}}
\newlabel{fig:F0.8-Analysis}{{9}{7}}
\newlabel{fig:F4.0-AInitial}{{10a}{7}}
\newlabel{sub@fig:F4.0-AInitial}{{a}{7}}
\newlabel{fig:F4.0-AFinal}{{10b}{7}}
\newlabel{sub@fig:F4.0-AFinal}{{b}{7}}
\newlabel{fig:F4.0-AEvol}{{11a}{8}}
\newlabel{sub@fig:F4.0-AEvol}{{a}{8}}
\newlabel{fig:F4.8-AEvol}{{12b}{8}}
\newlabel{sub@fig:F4.8-AEvol}{{b}{8}}
\newlabel{fig:F4.8-ARMS}{{12c}{8}}
\newlabel{sub@fig:F4.8-ARMS}{{c}{8}}
\newlabel{fig:F4.8-Analysis}{{12}{8}}
\newlabel{fig:F4.8-AFinal}{{13a}{9}}
\newlabel{sub@fig:F4.8-AFinal}{{a}{9}}
\newlabel{fig:F4.8-AEvol-100TS}{{13b}{9}}
\newlabel{sub@fig:F4.8-AEvol-100TS}{{b}{9}}
\newlabel{fig:F4.8-ARMS-100TS}{{13c}{9}}
\newlabel{sub@fig:F4.8-ARMS-100TS}{{c}{9}}
\newlabel{fig:F4.8-Analysis-100TS}{{13}{9}}
\newlabel{fig:F8.0-AFinal}{{14a}{10}}
\newlabel{sub@fig:F8.0-AFinal}{{a}{10}}
\newlabel{fig:F8.0-AEvol}{{14b}{10}}
\newlabel{sub@fig:F8.0-AEvol}{{b}{10}}
\newlabel{fig:F8.0-ARMS}{{14c}{10}}
\newlabel{sub@fig:F8.0-ARMS}{{c}{10}}
\newlabel{fig:F8.0-AInitial}{{14d}{10}}
\newlabel{sub@fig:F8.0-AInitial}{{d}{10}}
\newlabel{fig:F8.0-Analysis}{{14}{10}}
\newlabel{fig:F8.0-ARMS-10TS}{{15a}{10}}
\newlabel{sub@fig:F8.0-ARMS-10TS}{{a}{10}}
\newlabel{fig:F8.0-AEvol-10TS}{{15b}{10}}
\newlabel{sub@fig:F8.0-AEvol-10TS}{{b}{10}}
\newlabel{fig:F8.0-Analysis-10TS}{{15}{10}}
\newlabel{fig:F8.0-AInitial-Default}{{16a}{11}}
\newlabel{sub@fig:F8.0-AInitial-Default}{{a}{11}}
\newlabel{fig:F8.0-AInitial-initError5}{{16b}{11}}
\newlabel{sub@fig:F8.0-AInitial-initError5}{{b}{11}}
\newlabel{fig:F8.0-AInitial-initErrorComparison}{{16}{11}}
\newlabel{fig:F8.0-AFinal-obsSpacing3}{{17a}{12}}
\newlabel{sub@fig:F8.0-AFinal-obsSpacing3}{{a}{12}}
\newlabel{fig:F8.0-AEvol-obsSpacing3}{{17b}{12}}
\newlabel{sub@fig:F8.0-AEvol-obsSpacing3}{{b}{12}}
\newlabel{fig:F8.0-ARMS-obsSpacing3}{{17c}{12}}
\newlabel{sub@fig:F8.0-ARMS-obsSpacing3}{{c}{12}}
\newlabel{fig:F8.0-AInitial-obsSpacing3}{{17d}{12}}
\newlabel{sub@fig:F8.0-AInitial-obsSpacing3}{{d}{12}}
\newlabel{fig:F8.0-AFinal-obsError5}{{18a}{12}}
\newlabel{sub@fig:F8.0-AFinal-obsError5}{{a}{12}}
\newlabel{fig:F8.0-AEvol-obsError5}{{18b}{12}}
\newlabel{sub@fig:F8.0-AEvol-obsError5}{{b}{12}}
\newlabel{fig:F8.0-ARMS-obsError5}{{18c}{13}}
\newlabel{sub@fig:F8.0-ARMS-obsError5}{{c}{13}}
\newlabel{fig:F8.0-AInitial-obsError5}{{18d}{13}}
\newlabel{sub@fig:F8.0-AInitial-obsError5}{{d}{13}}
\newlabel{fig:F8.0-Analysis-obsError5}{{18}{13}}
\newlabel{fig:F8.0-AFinal-obsError3}{{19a}{13}}
\newlabel{sub@fig:F8.0-AFinal-obsError3}{{a}{13}}
\newlabel{fig:F8.0-AFinal-obsError2}{{19b}{13}}
\newlabel{sub@fig:F8.0-AFinal-obsError2}{{b}{13}}
\newlabel{fig:F8.0-AFinal-obsErrorComparison}{{19}{13}}
\newlabel{fig:F8.0-AFinal-obsFreq10}{{20a}{14}}
\newlabel{sub@fig:F8.0-AFinal-obsFreq10}{{a}{14}}
\newlabel{fig:F8.0-AEvol-obsFreq10}{{20b}{14}}
\newlabel{sub@fig:F8.0-AEvol-obsFreq10}{{b}{14}}
\newlabel{fig:F8.0-ARMS-obsFreq10}{{20c}{14}}
\newlabel{sub@fig:F8.0-ARMS-obsFreq10}{{c}{14}}
\newlabel{fig:F8.0-AInitial-obsFreq10}{{20d}{14}}
\newlabel{sub@fig:F8.0-AInitial-obsFreq10}{{d}{14}}
\newlabel{fig:F8.0-AFinal-obsFreq8}{{21a}{14}}
\newlabel{sub@fig:F8.0-AFinal-obsFreq8}{{a}{14}}
\newlabel{fig:F8.0-AFinal-obsFreq5}{{21b}{14}}
\newlabel{sub@fig:F8.0-AFinal-obsFreq5}{{b}{14}}
\newlabel{fig:F8.0-AFinal-obsFreqComparison}{{21}{14}}
\newlabel{fig:F8.0-AFinal-modelError1}{{22a}{15}}
\newlabel{sub@fig:F8.0-AFinal-modelError1}{{a}{15}}
\newlabel{fig:F8.0-AEvol-modelError1}{{22b}{15}}
\newlabel{sub@fig:F8.0-AEvol-modelError1}{{b}{15}}
\newlabel{fig:F8.0-ARMS-modelError1}{{22c}{15}}
\newlabel{sub@fig:F8.0-ARMS-modelError1}{{c}{15}}
\newlabel{fig:F8.0-AInitial-modelError1}{{22d}{15}}
\newlabel{sub@fig:F8.0-AInitial-modelError1}{{d}{15}}
\newlabel{fig:F8.0-Analysis-modelError1}{{22}{15}}
\abx@aux@refcontextdefaultsdone
\abx@aux@defaultrefcontext{0}{lorenz96}{none/global//global/global}
\abx@aux@defaultrefcontext{0}{codeRef}{none/global//global/global}
\abx@aux@defaultrefcontext{0}{solverRef}{none/global//global/global}
\newlabel{fig:F8.0-AFinal-leftObs}{{23a}{16}}
\newlabel{sub@fig:F8.0-AFinal-leftObs}{{a}{16}}
\newlabel{fig:F8.0-AEvol-leftObs}{{23b}{16}}
\newlabel{sub@fig:F8.0-AEvol-leftObs}{{b}{16}}
\newlabel{fig:F8.0-AEvol-leftObs}{{23c}{16}}
\newlabel{sub@fig:F8.0-AEvol-leftObs}{{c}{16}}
\newlabel{fig:F8.0-AInitial-leftObs}{{23d}{16}}
\newlabel{sub@fig:F8.0-AInitial-leftObs}{{d}{16}}
\newlabel{fig:F8.0-Analysis-leftObs}{{23}{16}}
